…
    ## See spec(...) for full column specifications.

``` r
# join data on smoking prevalence by state
cancer_reg = left_join(cancer_reg, tobacco_2013, by = "state") %>% 
  dplyr::select(target_death_rate, state, county, percent_smoke, everything())

# smoking prevalence for 50 states and district of columbia
cancer_reg %>% 
  distinct(state, percent_smoke)
```

    ## # A tibble: 51 x 2
    ##    state         percent_smoke
    ##    <chr>                 <dbl>
    ##  1 Washington             42.4
    ##  2 West Virginia          51.6
    ##  3 Wisconsin              45.6
    ##  4 Nebraska               43.1
    ##  5 Nevada                 41.9
    ##  6 New Hampshire          47.3
    ##  7 New Jersey             41.4
    ##  8 New Mexico             44.5
    ##  9 New York               41.6
    ## 10 Virginia               42.8
    ## # ... with 41 more rows
…
