…
``` r
##getting rid of variables with missing values

cancer_reg %>% select(-pct_some_col18_24, -pct_private_coverage_alone)
```

    ## # A tibble: 3,047 x 33
    ##    target_death_ra… avg_ann_count avg_deaths_per_… incidence_rate
    ##               <dbl>         <dbl>            <int>          <dbl>
    ##  1             165.          1397              469           490.
    ##  2             161.           173               70           412.
    ##  3             175.           102               50           350.
    ##  4             195.           427              202           430.
    ##  5             144.            57               26           350.
    ##  6             176            428              152           505.
    ##  7             176.           250               97           462.
    ##  8             184.           146               71           404 
    ##  9             190.            88               36           459.
    ## 10             178.          4025             1380           511.
    ## # ... with 3,037 more rows, and 29 more variables: med_income <int>,
    ## #   pop_est2015 <int>, poverty_percent <dbl>, study_per_cap <dbl>,
    ## #   binned_inc <chr>, median_age <dbl>, median_age_male <dbl>,
    ## #   median_age_female <dbl>, county <chr>, state <chr>,
    ## #   avg_household_size <dbl>, percent_married <dbl>, pct_no_hs18_24 <dbl>,
    ## #   pct_hs18_24 <dbl>, pct_bach_deg18_24 <dbl>, pct_hs25_over <dbl>,
    ## #   pct_bach_deg25_over <dbl>, pct_employed16_over <dbl>,
    ## #   pct_unemployed16_over <dbl>, pct_private_coverage <dbl>,
    ## #   pct_emp_priv_coverage <dbl>, pct_public_coverage <dbl>,
…
